{
  "lastModified": 1637589071,
  "effective": 1637588700,
  "flagUrl": "https://www.auswaertiges-amt.de/blob/200480/1efc65931b4aedb79f1880130eb2b86b/china-data.jpg",
  "title": "China: Reise- und Sicherheitshinweise",
  "warning": false,
  "partialWarning": false,
  "situationWarning": false,
  "situationPartWarning": false,
  "country": "china",
  "id": "200466"
}
