{
  "lastModified": 1637660907,
  "effective": 1637660700,
  "flagUrl": "https://www.auswaertiges-amt.de/blob/200682/1a76f2120fcaacfca15fb5ec637a604a/lettland-data.jpg",
  "title": "Lettland: Reise- und Sicherheitshinweise",
  "warning": false,
  "partialWarning": false,
  "situationWarning": true,
  "situationPartWarning": false,
  "country": "lettland",
  "id": "200674"
}
