{
  "lastModified": 1683288707,
  "effective": 1683288000,
  "title": "Taiwan*: Reise- und Sicherheitshinweise",
  "countryCode": "TW",
  "iso3CountryCode": "TWN",
  "countryName": "Taiwan*",
  "warning": false,
  "partialWarning": false,
  "situationWarning": false,
  "situationPartWarning": false,
  "country": "null",
  "id": "200896"
}
