{
  "lastModified": 1682083772,
  "effective": 1675165500,
  "title": "Kolumbien: Reise- und Sicherheitshinweise",
  "countryCode": "CO",
  "iso3CountryCode": "COL",
  "countryName": "Kolumbien",
  "warning": false,
  "partialWarning": false,
  "situationWarning": false,
  "situationPartWarning": false,
  "country": "null",
  "id": "201516"
}
