{
  "lastModified": 1680090144,
  "effective": 1677752100,
  "title": "Ghana: Reise- und Sicherheitshinweise",
  "countryCode": "GH",
  "iso3CountryCode": "GHA",
  "countryName": "Ghana",
  "warning": false,
  "partialWarning": false,
  "situationWarning": false,
  "situationPartWarning": false,
  "country": "null",
  "id": "203372"
}
