{
  "lastModified": 1682086041,
  "effective": 1677167100,
  "title": "Oman: Reise- und Sicherheitshinweise",
  "countryCode": "OM",
  "iso3CountryCode": "OMN",
  "countryName": "Oman",
  "warning": false,
  "partialWarning": false,
  "situationWarning": false,
  "situationPartWarning": false,
  "country": "null",
  "id": "204160"
}
