{
  "lastModified": 1638563743,
  "effective": 1638563400,
  "flagUrl": "https://www.auswaertiges-amt.de/blob/205872/137ee41f3a0f61763a87905a5abc9b74/norwegen-data.jpg",
  "title": "Norwegen: Reise- und Sicherheitshinweise",
  "warning": false,
  "partialWarning": false,
  "situationWarning": false,
  "situationPartWarning": false,
  "country": "norwegen",
  "id": "205878"
}
