{
  "lastModified": 1637846401,
  "effective": 1637845200,
  "flagUrl": "https://www.auswaertiges-amt.de/blob/206372/d1f9e43296901c9dd42079013ce9d823/slowakei-data.jpg",
  "title": "Slowakei: Reise- und Sicherheitshinweise",
  "warning": false,
  "partialWarning": false,
  "situationWarning": true,
  "situationPartWarning": false,
  "country": "slowakei",
  "id": "206360"
}
