{
  "lastModified": 1638789677,
  "effective": 1638786600,
  "flagUrl": "https://www.auswaertiges-amt.de/blob/206990/790ee6cb218c039bc924cf86e5a4b413/mauritius-data.jpg",
  "title": "Mauritius: Reise- und Sicherheitshinweise",
  "warning": false,
  "partialWarning": false,
  "situationWarning": true,
  "situationPartWarning": false,
  "country": "mauritius",
  "id": "206994"
}
