{
  "lastModified": 1682512809,
  "effective": 1672836300,
  "title": "Kosovo: Reise- und Sicherheitshinweise",
  "countryCode": "XK",
  "countryName": "Kosovo",
  "warning": false,
  "partialWarning": false,
  "situationWarning": false,
  "situationPartWarning": false,
  "country": "null",
  "id": "207442"
}
