{
  "lastModified": 1635841875,
  "effective": 1635841800,
  "flagUrl": "https://www.auswaertiges-amt.de/blob/208186/772c2edf41b8615596fa26336d39d495/senegal-data.jpg",
  "title": "Senegal: Reise- und Sicherheitshinweise",
  "warning": false,
  "partialWarning": false,
  "situationWarning": false,
  "situationPartWarning": false,
  "country": "senegal",
  "id": "208190"
}
