{
  "lastModified": 1680791569,
  "effective": 1680791400,
  "title": "Südafrika: Reise- und Sicherheitshinweise",
  "countryCode": "ZA",
  "iso3CountryCode": "ZAF",
  "countryName": "Südafrika",
  "warning": false,
  "partialWarning": false,
  "situationWarning": false,
  "situationPartWarning": false,
  "country": "null",
  "id": "208400"
}
