{
  "lastModified": 1681739264,
  "effective": 1681738200,
  "title": "Kroatien: Reise- und Sicherheitshinweise",
  "countryCode": "HR",
  "iso3CountryCode": "HRV",
  "countryName": "Kroatien",
  "warning": false,
  "partialWarning": false,
  "situationWarning": false,
  "situationPartWarning": false,
  "country": "null",
  "id": "210072"
}
