{
  "lastModified": 1682492752,
  "effective": 1682491500,
  "title": "Irland: Reise- und Sicherheitshinweise",
  "countryCode": "IE",
  "iso3CountryCode": "IRL",
  "countryName": "Irland",
  "warning": false,
  "partialWarning": false,
  "situationWarning": false,
  "situationPartWarning": false,
  "country": "null",
  "id": "211460"
}
