{
  "lastModified": 1638786934,
  "effective": 1638786600,
  "flagUrl": "https://www.auswaertiges-amt.de/blob/211918/f05d02d53ca3e99c5eb6232a7f67fccd/burkinafaso-data.jpg",
  "title": "Burkina Faso: Reise- und Sicherheitshinweise",
  "warning": false,
  "partialWarning": true,
  "situationWarning": false,
  "situationPartWarning": false,
  "country": "burkinafaso",
  "id": "212336"
}
