{
  "lastModified": 1635855309,
  "effective": 1635854400,
  "flagUrl": "https://www.auswaertiges-amt.de/blob/213440/5ee51b06226ef3a0e206a12202a53ee8/bolivien-data.jpg",
  "title": "Bolivien: Reise- und Sicherheitshinweise",
  "warning": false,
  "partialWarning": false,
  "situationWarning": false,
  "situationPartWarning": false,
  "country": "bolivien",
  "id": "213428"
}
