{
  "lastModified": 1636446003,
  "effective": 1633954500,
  "flagUrl": "https://www.auswaertiges-amt.de/blob/213846/6d0611aed310da484f39247fe925e554/togo-data.jpg",
  "title": "Togo: Reise- und Sicherheitshinweise",
  "warning": false,
  "partialWarning": false,
  "situationWarning": false,
  "situationPartWarning": false,
  "country": "togo",
  "id": "213850"
}
