{
  "lastModified": 1682512940,
  "effective": 1664963100,
  "title": "Demokratische Volksrepublik Korea (Nordkorea): Reise- und Sicherheitshinweise",
  "countryCode": "KP",
  "iso3CountryCode": "PRK",
  "countryName": "Demokratische Volksrepublik Korea (Nordkorea)",
  "warning": false,
  "partialWarning": false,
  "situationWarning": false,
  "situationPartWarning": false,
  "country": "null",
  "id": "216104"
}
