{
  "lastModified": 1638444945,
  "effective": 1638443700,
  "flagUrl": "https://www.auswaertiges-amt.de/blob/216100/a5f7374ebd4fd82d6cfab8d3836d58ca/koreasued-data.jpg",
  "title": "Republik Korea (Südkorea): Reise- und Sicherheitshinweise",
  "warning": false,
  "partialWarning": false,
  "situationWarning": false,
  "situationPartWarning": false,
  "country": "koreasued",
  "id": "216132"
}
