{
  "lastModified": 1683207248,
  "effective": 1683207000,
  "title": "Vietnam: Reise- und Sicherheitshinweise",
  "countryCode": "VN",
  "iso3CountryCode": "VNM",
  "countryName": "Vietnam",
  "warning": false,
  "partialWarning": false,
  "situationWarning": false,
  "situationPartWarning": false,
  "country": "null",
  "id": "217274"
}
