{
  "lastModified": 1638807594,
  "effective": 1638807300,
  "flagUrl": "https://www.auswaertiges-amt.de/blob/219516/4bb04dba68a48f9ab48c322949de3170/botsuana-data.jpg",
  "title": "Botsuana: Reise- und Sicherheitshinweise",
  "warning": false,
  "partialWarning": false,
  "situationWarning": true,
  "situationPartWarning": false,
  "country": "botsuana",
  "id": "219522"
}
