{
  "lastModified": 1637055145,
  "effective": 1637054100,
  "flagUrl": "https://www.auswaertiges-amt.de/blob/220156/eb6a79778228d57556228b90cedfee83/neuseeland-data.jpg",
  "title": "Neuseeland: Reise- und Sicherheitshinweise",
  "warning": false,
  "partialWarning": false,
  "situationWarning": false,
  "situationPartWarning": false,
  "country": "neuseeland",
  "id": "220146"
}
