{
  "lastModified": 1682513434,
  "effective": 1679913900,
  "title": "Malediven: Reise- und Sicherheitshinweise",
  "countryCode": "MV",
  "iso3CountryCode": "MDV",
  "countryName": "Malediven",
  "warning": false,
  "partialWarning": false,
  "situationWarning": false,
  "situationPartWarning": false,
  "country": "null",
  "id": "220382"
}
