{
  "lastModified": 1636048997,
  "effective": 1636048800,
  "flagUrl": "https://www.auswaertiges-amt.de/blob/220410/31f74ba325c984404c123afc6283ea1c/marshallinseln-data.jpg",
  "title": "Marshallinseln: Reise- und Sicherheitshinweise",
  "warning": false,
  "partialWarning": false,
  "situationWarning": false,
  "situationPartWarning": false,
  "country": "marshallinseln",
  "id": "220400"
}
