{
  "lastModified": 1638267622,
  "effective": 1638266400,
  "flagUrl": "https://www.auswaertiges-amt.de/blob/220634/85883089c5ed9b1ee23dd655fc53f7fb/salomonen-data.jpg",
  "title": "Salomonen: Reise- und Sicherheitshinweise",
  "warning": false,
  "partialWarning": false,
  "situationWarning": false,
  "situationPartWarning": false,
  "country": "salomonen",
  "id": "220650"
}
