{
  "lastModified": 1637838974,
  "effective": 1637838000,
  "flagUrl": "https://www.auswaertiges-amt.de/blob/221382/eb38e9d2744c885bf2425bdc6e51f424/timorleste-data.jpg",
  "title": "Timor-Leste: Reise- und Sicherheitshinweise",
  "warning": false,
  "partialWarning": false,
  "situationWarning": false,
  "situationPartWarning": false,
  "country": "timorleste",
  "id": "221388"
}
