{
  "lastModified": 1638439880,
  "effective": 1638439200,
  "flagUrl": "https://www.auswaertiges-amt.de/blob/222854/1b7327fd455629767fe6f3031e3c72b3/mongolei-data.jpg",
  "title": "Mongolei: Reise- und Sicherheitshinweise",
  "warning": false,
  "partialWarning": false,
  "situationWarning": true,
  "situationPartWarning": false,
  "country": "mongolei",
  "id": "222842"
}
