{
  "lastModified": 1675858283,
  "effective": 1665751500,
  "title": "Liechtenstein: Reise- und Sicherheitshinweise",
  "countryCode": "LI",
  "iso3CountryCode": "LIE",
  "countryName": "Liechtenstein",
  "warning": false,
  "partialWarning": false,
  "situationWarning": false,
  "situationPartWarning": false,
  "country": "null",
  "id": "222960"
}
