{
  "lastModified": 1679663671,
  "effective": 1679661000,
  "title": "Marokko: Reise- und Sicherheitshinweise",
  "countryCode": "MA",
  "iso3CountryCode": "MAR",
  "countryName": "Marokko",
  "warning": false,
  "partialWarning": false,
  "situationWarning": false,
  "situationPartWarning": false,
  "country": "null",
  "id": "224080"
}
