{
  "lastModified": 1638176868,
  "effective": 1638176400,
  "flagUrl": "https://www.auswaertiges-amt.de/blob/224538/30de399584903b2ebc5321a073f698ae/brunei-data.jpg",
  "title": "Brunei Darussalam: Reise- und Sicherheitshinweise",
  "warning": false,
  "partialWarning": false,
  "situationWarning": false,
  "situationPartWarning": false,
  "country": "brunei",
  "id": "224526"
}
