{
  "lastModified": 1638787378,
  "effective": 1638786600,
  "flagUrl": "https://www.auswaertiges-amt.de/blob/226278/01a865f3b3fcee3d8ab91e11ccd12da3/stvincent-data.jpg",
  "title": "St. Vincent und die Grenadinen: Reise- und Sicherheitshinweise",
  "warning": false,
  "partialWarning": false,
  "situationWarning": false,
  "situationPartWarning": false,
  "country": "stvincent",
  "id": "226268"
}
