{
  "lastModified": 1680871451,
  "effective": 1680870600,
  "title": "St. Kitts und Nevis: Reise- und Sicherheitshinweise",
  "countryCode": "KN",
  "iso3CountryCode": "KNA",
  "countryName": "St. Kitts und Nevis",
  "warning": false,
  "partialWarning": false,
  "situationWarning": false,
  "situationPartWarning": false,
  "country": "null",
  "id": "226596"
}
