{
  "lastModified": 1636467969,
  "effective": 1636467300,
  "flagUrl": "https://www.auswaertiges-amt.de/blob/226562/beb926d90fe81b88c618099b33462666/cookinseln-data.jpg",
  "title": "Cookinseln: Reise- und Sicherheitshinweise",
  "warning": false,
  "partialWarning": false,
  "situationWarning": false,
  "situationPartWarning": false,
  "country": "cookinseln",
  "id": "226552"
}
