{
  "lastModified": 1635931536,
  "effective": 1634622300,
  "flagUrl": "https://www.auswaertiges-amt.de/blob/226632/cef9a9026da4de985bb9dd4962125159/fidschi-data.jpg",
  "title": "Fidschi: Reise- und Sicherheitshinweise",
  "warning": false,
  "partialWarning": false,
  "situationWarning": false,
  "situationPartWarning": false,
  "country": "fidschi",
  "id": "226626"
}
