{
  "lastModified": 1638462643,
  "effective": 1638461700,
  "flagUrl": "https://www.auswaertiges-amt.de/blob/226784/5f95aaa66625fddc5050948065d55e3c/aequatorialguinea-data.jpg",
  "title": "Äquatorialguinea: Reise- und Sicherheitshinweise",
  "warning": false,
  "partialWarning": false,
  "situationWarning": false,
  "situationPartWarning": false,
  "country": "aequatorialguinea",
  "id": "226768"
}
